42
4 42 27 16 28 3 4 5 9 3 31 5 5 29 10 18 35 35 33 19 41 23 8 32 9 5 8 18 35 13 6 7 6 10 11 13 37 2 25 7 28 43
-1
17
27 4 25 6 6 1 27 22 19 29 6 9 36 24 6 15 5
-1
43
43 41 20 26 34 9 8 4 36 16 42 34 25 36 2 34 38 29 36 42 1 19 14 37 18 32 15 4 41 6 14 6 30 10 29 26 10 8 1 43 4 33 4
-1
8
43 34 2 8 17 5 11 8
-1
7
4 17 34 4 21 8 10
-1
4
6 26 16 2
-1
7
9 1 20 32 29 5 5
-1
38
2 29 29 4 3 7 1 18 16 37 33 12 3 2 22 23 12 38 28 32 27 6 9 19 8 29 22 5 7 39 10 38 5 22 23 14 20 22
-1
11
35 24 27 16 42 40 10 6 21 21 11
-1
43
24 5 17 8 15 11 21 13 23 39 30 4 14 10 8 39 20 15 3 4 16 9 19 39 34 25 29 21 31 3 21 2 9 22 31 7 21 4 30 23 5 36 3
-1
9
12 6 11 40 32 31 38 10 9
-1
19
32 41 34 26 34 30 10 11 23 20 10 12 25 5 7 41 7 43 25
-1
8
33 33 26 7 19 23 8 43
-1
30
20 17 42 25 32 32 30 32 37 9 2 33 31 17 14 40 9 12 36 21 8 33 6 6 10 37 12 26 21 3
13
7
30 10 9 4 10 32 13
-1
34
10 21 6 20 9 3 26 43 35 32 5 29 13 38 2 10 28 24 12 4 38 7 8 2 3 2 37 7 39 9 26 8 29 15
-1